Mykrobe_ONT_2024
…
geno.sub$genoMatch <- ifelse(geno.sub$ONT_genotype == geno.sub$genotype, geno.sub$genotype, "NoMatch") 
geno.sub$SppMatch <- ifelse(geno.sub$ONT_species == geno.sub$species, geno.sub$species, "NoMatch") 
geno.sub %>% group_by(SppMatch) %>% summarise(n=n())

## # A tibble: 2 x 2
##   SppMatch     n
##   <chr>    <int>
## 1 NoMatch      6
## 2 typhi       84

geno.sub %>% group_by(genoMatch) %>% summarise(n=n())

## # A tibble: 35 x 2
##    genoMatch     n
##    <chr>     <int>
##  1 0.0.2         1
##  2 0.0.3         1
##  3 1.1           1
##  4 1.1.4         1
##  5 1.2.1         2
##  6 2             3
##  7 2.0.1         1
##  8 2.0.2         1
##  9 2.1           1
## 10 2.1.7.1       2
## #  with 25 more rows

#filtering out those without Typhi species match
geno.sub %>% filter(SppMatch == "typhi") %>% group_by(SppMatch) %>% summarise(n=n())

## # A tibble: 1 x 2
##   SppMatch     n
##   <chr>    <int>
## 1 typhi       84

geno.sub %>% filter(SppMatch == "typhi") %>% group_by(genoMatch) %>% summarise(n=n())

## # A tibble: 34 x 2
##    genoMatch     n
##    <chr>     <int>
##  1 0.0.2         1
##  2 0.0.3         1
##  3 1.1           1
##  4 1.1.4         1
##  5 1.2.1         2
##  6 2             3
##  7 2.0.1         1
##  8 2.0.2         1
##  9 2.1           1
## 10 2.1.7.1       2
## #  with 24 more rows
…
