Mykrobe_AMRconcordance_2024
…
#point mutations only
amr.data %>% group_by(MYK_ciprofloxacin) %>% summarise(n=n())

## # A tibble: 38 x 2
##    MYK_ciprofloxacin          n
##    <chr>                  <int>
##  1 I: gyrA_D87G              51
##  2 I: gyrA_D87N             183
##  3 I: gyrA_D87V               2
##  4 I: gyrA_D87Y              21
##  5 I: gyrA_S83F            4872
##  6 I: gyrA_S83F;gyrA_D87G     6
##  7 I: gyrA_S83F;gyrA_D87N     2
##  8 I: gyrA_S83F;parC_E84G    75
##  9 I: gyrA_S83F;parC_E84K    19
## 10 I: gyrA_S83F;parC_S80I    49
## #  with 28 more rows
…
